C8U1000
C8U1001
C8U1002
C8U1003
C8U1004
C8U1005
C8U1006
C8U1007
C8U1008
C8U1009
C8U1010
C8U1011
C8U1012
C8U1013
C8U1014
C8U1015
C8U1016
C8U1017
C8U1018
C8U1019
C8U1020
C8U1021
C8U1022
C8U1023
C8U1024
C8U1025
C8U1026
C8U1027
C8U1028
C8U1029
C8U1030
C8U1031
C8U1032
C8U1033
C8U1034
C8U1035
C8U1036
C8U1037
C8U1038
C8U1039
C8U1040
C8U1041
C8U1042
C8U1043
C8U1044
C8U1045
C8U1046
C8U1047
C8U1048
C8U1049
C8U1050
C8U1051
C8U1052
C8U1053
C8U1054
C8U1055
C8U1056
C8U1057
C8U1058
C8U1059
C8U1060
C8U1061
C8U1062
C8U1063
C8U1064
C8U1065
C8U1066
C8U1067
C8U1068
C8U1069
C8U1070
C8U1071
C8U1072
C8U1073
C8U1074
C8U1075
C8U1076
C8U1077
C8U1078
C8U1079
C8U1080
C8U1081
C8U1082
C8U1083
C8U1084
C8U1085
C8U1086
C8U1087
C8U1088
C8U1089
C8U1090
C8U1091
C8U1092
C8U1093
C8U1094
C8U1095
C8U1096
C8U1097
C8U1098
C8U1099
C8U1100
C8U1101
C8U1102
C8U1103
C8U1104
C8U1105
C8U1106
C8U1107
C8U1108
C8U1109
C8U1110
C8U1111
C8U1112
C8U1113
C8U1114
C8U1115
C8U1116
C8U1117
C8U1118
C8U1119
C8U1120
C8U1121
C8U1122
C8U1123
C8U1124
C8U1125
C8U1126
C8U1127
C8U1128
C8U1129
C8U1130
C8U1131
C8U1132
C8U1133
C8U1134
C8U1135
C8U1136
C8U1137
C8U1138
C8U1139
C8U1140
C8U1141
C8U1142
C8U1143
C8U1144
C8U1145
C8U1146
C8U1147
C8U1148
C8U1149
C8U1150
C8U1151
C8U1152
C8U1153
C8U1154
C8U1155
C8U1156
C8U1157
C8U1158
C8U1159
C8U1160
C8U1161
C8U1162
C8U1163
C8U1164
C8U1165
C8U1166
C8U1167
C8U1168
C8U1169
C8U1170
C8U1171
C8U1172
C8U1173
C8U1174
C8U1175
C8U1176
C8U1177
C8U1178
C8U1179
C8U1180
C8U1181
C8U1182
C8U1183
C8U1184
C8U1185
C8U1186
C8U1187
C8U1188
C8U1189
C8U1190
C8U1191
C8U1192
C8U1193
C8U1194
C8U1195
C8U1196
C8U1197
C8U1198
C8U1199
C8U1200
C8U1201
C8U1202
C8U1203
C8U1204
C8U1205
C8U1206
C8U1207
C8U1208
C8U1209
C8U1210
C8U1211
C8U1212
C8U1213
C8U1214
C8U1215
C8U1216
C8U1217
C8U1218
C8U1219
C8U1220
C8U1221
C8U1222
C8U1223
C8U1224
C8U1225
C8U1226
C8U1227
C8U1228
C8U1229
C8U1230
C8U1231
C8U1232
C8U1233
C8U1234
C8U1235
C8U1236
C8U1237
C8U1238
C8U1239
C8U1240
C8U1241
C8U1242
C8U1243
C8U1244
C8U1245
C8U1246
C8U1247
C8U1248
C8U1249
C8U1250
C8U1251
C8U1252
C8U1253
C8U1254
C8U1255
C8U1256
C8U1257
C8U1258
C8U1259
C8U1260
C8U1261
C8U1262
C8U1263
C8U1264
C8U1265
C8U1266
C8U1267
C8U1268
C8U1269
C8U1270
C8U1271
C8U1272
C8U1273
C8U1274
C8U1275
C8U1276
C8U1277
C8U1278
C8U1279
C8U1280
C8U1281
C8U1282
C8U1283
C8U1284
C8U1285
C8U1286
C8U1287
C8U1288
C8U1289
C8U1290
C8U1291
C8U1292
C8U1293
C8U1294
C8U1295
C8U1296
C8U1297
C8U1298
C8U1299
C8U1300
C8U1301
C8U1302
C8U1303
C8U1304
C8U1305
C8U1306
C8U1307
C8U1308
C8U1309
C8U1310
C8U1311
C8U1312
C8U1313
C8U1314
C8U1315
C8U1316
C8U1317
C8U1318
C8U1319
C8U1320
C8U1321
C8U1322
C8U1323
C8U1324
C8U1325
C8U1326
C8U1327
C8U1328
C8U1329
C8U1330
C8U1331
C8U1332
C8U1333
C8U1334
C8U1335
C8U1336
C8U1337
C8U1338
C8U1339
C8U1340
C8U1341
C8U1342
C8U1343
C8U1344
C8U1345
C8U1346
C8U1347
C8U1348
C8U1349
C8U1350
C8U1351
C8U1352
C8U1353
C8U1354
C8U1355
C8U1356
C8U1357
C8U1358
C8U1359
C8U1360
C8U1361
C8U1362
C8U1363
C8U1364
C8U1365
C8U1366
C8U1367
C8U1368
C8U1369
C8U1370
C8U1371
C8U1372
C8U1373
C8U1374
C8U1375
C8U1376
C8U1377
C8U1378
C8U1379
C8U1380
C8U1381
C8U1382
C8U1383
C8U1384
C8U1385
C8U1386
C8U1387
C8U1388
C8U1389
C8U1390
C8U1391
C8U1392
C8U1393
C8U1394
C8U1395
C8U1396
C8U1397
C8U1398
C8U1399
C8U1400
C8U1401
C8U1402
C8U1403
C8U1404
C8U1405
C8U1406
C8U1407
C8U1408
C8U1409
C8U1410
C8U1411
C8U1412
C8U1413
C8U1414
C8U1415
C8U1416
C8U1417
C8U1418
C8U1419
C8U1420
C8U1421
C8U1422
C8U1423
C8U1424
C8U1425
C8U1426
C8U1427
C8U1428
C8U1429
C8U1430
C8U1431
C8U1432
C8U1433
C8U1434
C8U1435
C8U1436
C8U1437
C8U1438
C8U1439
C8U1440
C8U1441
C8U1442
C8U1443
C8U1444
C8U1445
C8U1446
C8U1447
C8U1448
C8U1449
C8U1450
C8U1451
C8U1452
C8U1453
C8U1454
C8U1455
C8U1456
C8U1457
C8U1458
C8U1459
C8U1460
C8U1461
C8U1462
C8U1463
C8U1464
C8U1465
C8U1466
C8U1467
C8U1468
C8U1469
C8U1470
C8U1471
C8U1472
C8U1473
C8U1474
C8U1475
C8U1476
C8U1477
C8U1478
C8U1479
C8U1480
C8U1481
C8U1482
C8U1483
C8U1484
C8U1485
C8U1486
C8U1487
C8U1488
C8U1489
C8U1490
C8U1491
C8U1492
C8U1493
C8U1494
C8U1495
C8U1496
C8U1497
C8U1498
C8U1499
C8U1500
C8U1501
C8U1502
C8U1503
C8U1504
C8U1505
C8U1506
C8U1507
C8U1508
C8U1509
C8U1510
C8U1511
C8U1512
C8U1513
C8U1514
C8U1515
C8U1516
C8U1517
C8U1518
C8U1519
C8U1520
C8U1521
C8U1522
C8U1523
C8U1524
C8U1525
C8U1526
C8U1527
C8U1528
C8U1529
C8U1530
C8U1531
C8U1532
C8U1533
C8U1534
C8U1535
C8U1536
C8U1537
C8U1538
C8U1539
C8U1540
C8U1541
C8U1542
C8U1543
C8U1544
C8U1545
C8U1546
C8U1547
C8U1548
C8U1549
C8U1550
C8U1551
C8U1552
C8U1553
C8U1554
C8U1555
C8U1556
C8U1557
C8U1558
C8U1559
C8U1560
C8U1561
C8U1562
C8U1563
C8U1564
C8U1565
C8U1566
C8U1567
C8U1568
C8U1569
C8U1570
C8U1571
C8U1572
C8U1573
C8U1574
C8U1575
C8U1576
C8U1577
C8U1578
C8U1579
C8U1580
C8U1581
C8U1582
C8U1583
C8U1584
C8U1585
C8U1586
C8U1587
C8U1588
C8U1589
C8U1590
C8U1591
C8U1592
C8U1593
C8U1594
C8U1595
C8U1596
C8U1597
C8U1598
C8U1599
C8U1600
C8U1601
C8U1602
C8U1603
C8U1604
C8U1605
C8U1606
C8U1607
C8U1608
C8U1609
C8U1610
C8U1611
C8U1612
C8U1613
C8U1614
C8U1615
C8U1616
C8U1617
C8U1618
C8U1619
C8U1620
C8U1621
C8U1622
C8U1623
C8U1624
C8U1625
C8U1626
C8U1627
C8U1628
C8U1629
C8U1630
C8U1631
C8U1632
C8U1633
C8U1634
C8U1635
C8U1636
C8U1637
C8U1638
C8U1639
C8U1640
C8U1641
C8U1642
C8U1643
C8U1644
C8U1645
C8U1646
C8U1647
C8U1648
C8U1649
C8U1650
C8U1651
C8U1652
C8U1653
C8U1654
C8U1655
C8U1656
C8U1657
C8U1658
C8U1659
C8U1660
C8U1661
C8U1662
C8U1663
C8U1664
C8U1665
C8U1666
C8U1667
C8U1668
C8U1669
C8U1670
C8U1671
C8U1672
C8U1673
C8U1674
C8U1675
C8U1676
C8U1677
C8U1678
C8U1679
C8U1680
C8U1681
C8U1682
C8U1683
C8U1684
C8U1685
C8U1686
C8U1687
C8U1688
C8U1689
C8U1690
C8U1691
C8U1692
C8U1693
C8U1694
C8U1695
C8U1696
C8U1697
C8U1698
C8U1699
C8U1700
C8U1701
C8U1702
C8U1703
C8U1704
C8U1705
C8U1706
C8U1707
C8U1708
C8U1709
C8U1710
C8U1711
C8U1712
C8U1713
C8U1714
C8U1715
C8U1716
C8U1717
C8U1718
C8U1719
C8U1720
C8U1721
C8U1722
C8U1723
C8U1724
C8U1725
C8U1726
C8U1727
C8U1728
C8U1729
C8U1730
C8U1731
C8U1732
C8U1733
C8U1734
C8U1735
C8U1736
C8U1737
C8U1738
C8U1739
C8U1740
C8U1741
C8U1742
C8U1743
C8U1744
C8U1745
C8U1746
C8U1747
C8U1748
C8U1749
C8U1750
C8U1751
C8U1752
C8U1753
C8U1754
C8U1755
C8U1756
C8U1757
C8U1758
C8U1759
C8U1760
C8U1761
C8U1762
C8U1763
C8U1764
C8U1765
C8U1766
C8U1767
C8U1768
C8U1769
C8U1770
C8U1771
C8U1772
C8U1773
C8U1774
C8U1775
C8U1776
C8U1777
C8U1778
C8U1779
C8U1780
C8U1781
C8U1782
C8U1783
C8U1784
C8U1785
C8U1786
C8U1787
C8U1788
C8U1789
C8U1790
C8U1791
C8U1792
C8U1793
C8U1794
C8U1795
C8U1796
C8U1797
C8U1798
C8U1799
C8U1800
C8U1801
C8U1802
C8U1803
C8U1804
C8U1805
C8U1806
C8U1807
C8U1808
C8U1809
C8U1810
C8U1811
C8U1812
C8U1813
C8U1814
C8U1815
C8U1816
C8U1817
C8U1818
C8U1819
C8U1820
C8U1821
C8U1822
C8U1823
C8U1824
C8U1825
C8U1826
C8U1827
C8U1828
C8U1829
C8U1830
C8U1831
C8U1832
C8U1833
C8U1834
C8U1835
C8U1836
C8U1837
C8U1838
C8U1839
C8U1840
C8U1841
C8U1842
C8U1843
C8U1844
C8U1845
C8U1846
C8U1847
C8U1848
C8U1849
C8U1850
C8U1851
C8U1852
C8U1853
C8U1854
C8U1855
C8U1856
C8U1857
C8U1858
C8U1859
C8U1860
C8U1861
C8U1862
C8U1863
C8U1864
C8U1865
C8U1866
C8U1867
C8U1868
C8U1869
C8U1870
C8U1871
C8U1872
C8U1873
C8U1874
C8U1875
C8U1876
C8U1877
C8U1878
C8U1879
C8U1880
C8U1881
C8U1882
C8U1883
C8U1884
C8U1885
C8U1886
C8U1887
C8U1888
C8U1889
C8U1890
C8U1891
C8U1892
C8U1893
C8U1894
C8U1895
C8U1896
C8U1897
C8U1898
C8U1899
C8U1900
C8U1901
C8U1902
C8U1903
C8U1904
C8U1905
C8U1906
C8U1907
C8U1908
C8U1909
C8U1910
C8U1911
C8U1912
C8U1913
C8U1914
C8U1915
C8U1916
C8U1917
C8U1918
C8U1919
C8U1920
C8U1921
C8U1922
C8U1923
C8U1924
C8U1925
C8U1926
C8U1927
C8U1928
C8U1929
C8U1930
C8U1931
C8U1932
C8U1933
C8U1934
C8U1935
C8U1936
C8U1937
C8U1938
C8U1939
C8U1940
C8U1941
C8U1942
C8U1943
C8U1944
C8U1945
C8U1946
C8U1947
C8U1948
C8U1949
C8U1950
C8U1951
C8U1952
C8U1953
C8U1954
C8U1955
C8U1956
C8U1957
C8U1958
C8U1959
C8U1960
C8U1961
C8U1962
C8U1963
C8U1964
C8U1965
C8U1966
C8U1967
C8U1968
C8U1969
C8U1970
C8U1971
C8U1972
C8U1973
C8U1974
C8U1975
C8U1976
C8U1977
C8U1978
C8U1979
C8U1980
C8U1981
C8U1982
C8U1983
C8U1984
C8U1985
C8U1986
C8U1987
C8U1988
C8U1989
C8U1990
C8U1991
C8U1992
C8U1993
C8U1994
C8U1995
C8U1996
C8U1997
C8U1998
C8U1999
C8U2000



